Chapter 4 Data Wrangling | Data Analytics in Accounting An R Programming Approach
…
4.3.2 Multiple Variables are Stored in One Column

The netincome_asset dataset is a good example of this kind of dataset. For example, the variable VALUES includes net income and total assets separated by /. This variable is very hard to manipulate. For example, if we want to calculate Return on Assets (ROA), which equals to net income divided by total assets, then it is not possible to use VALUES column to calculate ROA.

netincome_asset

## # A tibble: 23 x 4
##     year TICKER COMPANYNAME VALUES     
##    <dbl> <chr>  <chr>       <chr>      
##  1  2000 AAPL   APPLE INC   786/6803   
##  2  2001 AAPL   APPLE INC   -25/6021   
##  3  2002 AAPL   APPLE INC   65/6298    
##  4  2003 AAPL   APPLE INC   69/6815    
##  5  2004 AAPL   APPLE INC   276/8050   
##  6  2000 WMT    WALMART INC 5377/70349 
##  7  2001 WMT    WALMART INC 6295/78130 
##  8  2002 WMT    WALMART INC 6671/83451 
##  9  2003 WMT    WALMART INC 8039/94685 
## 10  2004 WMT    WALMART INC 9054/104912
## # ... with 13 more rows
…
The sales_profit dataset can be put into tidy format using both pivot_longer and pivot_wider function.

sales_profit %>% 
  pivot_longer(
    cols = !c ("TICKER", "COMPANYNAME", "ITEM"),
    names_to = "year",
    values_to = "AMOUNT"
  ) %>% 
  pivot_wider(
    names_from = ITEM, 
    values_from = AMOUNT
  )

## # A tibble: 25 x 5
##    TICKER COMPANYNAME year   SALES NETINCOME
##    <chr>  <chr>       <chr>  <dbl>     <dbl>
##  1 AAPL   APPLE INC   2000    7983       786
##  2 AAPL   APPLE INC   2001    5363       -25
##  3 AAPL   APPLE INC   2002    5742        65
##  4 AAPL   APPLE INC   2003    6207        69
##  5 AAPL   APPLE INC   2004    8279       276
##  6 WMT    WALMART INC 2000  165639      5377
##  7 WMT    WALMART INC 2001  192003      6295
##  8 WMT    WALMART INC 2002  218529      6671
##  9 WMT    WALMART INC 2003  245308      8039
## 10 WMT    WALMART INC 2004  257157      9054
## # ... with 15 more rows

4.4.3 separate () function

The separate function can be used when multiple variables are stored in one column. The function separates one column into multiple columns. For example, in netincome_asset data, the column VALUES should be converted into two columns called NETINCOME and TOTALASSETS. In separate function, col argument is ued to select the column that needs to be broken; into argument is used to create new columns; and sep argument is ued to identify the character in which the column will be separated. In this case, it is /. Finally remove argument is used to decide whether the column (here VALUES) that is separated should be in new dataset.

netincome_asset %>% 
  separate(
    col = VALUES, into = c ("NETINCMOE", "TOTALASSETS"), sep ="/",
    remove =TRUE
  )

## # A tibble: 23 x 5
##     year TICKER COMPANYNAME NETINCMOE TOTALASSETS
##    <dbl> <chr>  <chr>       <chr>     <chr>      
##  1  2000 AAPL   APPLE INC   786       6803       
##  2  2001 AAPL   APPLE INC   -25       6021       
##  3  2002 AAPL   APPLE INC   65        6298       
##  4  2003 AAPL   APPLE INC   69        6815       
##  5  2004 AAPL   APPLE INC   276       8050       
##  6  2000 WMT    WALMART INC 5377      70349      
##  7  2001 WMT    WALMART INC 6295      78130      
##  8  2002 WMT    WALMART INC 6671      83451      
##  9  2003 WMT    WALMART INC 8039      94685      
## 10  2004 WMT    WALMART INC 9054      104912     
## # ... with 13 more rows

It is clear from the above dataset that the type of columns NETINCOME and TOTALASSETS are chr, but they should be number (e.g., dbl). Actually, separate functions maintain the type of the columns that are separated. The type of VALUES column was chr and it is maintained in new dataset. In order to get the true type, we can use convert argument, which is done below.

netincome_asset  %>% 
  separate(
    col = VALUES, into = c ("NETINCMOE", "TOTALASSETS"), sep ="/",
    remove =TRUE,convert = TRUE
  )

## # A tibble: 23 x 5
##     year TICKER COMPANYNAME NETINCMOE TOTALASSETS
##    <dbl> <chr>  <chr>           <dbl>       <dbl>
##  1  2000 AAPL   APPLE INC         786        6803
##  2  2001 AAPL   APPLE INC         -25        6021
##  3  2002 AAPL   APPLE INC          65        6298
##  4  2003 AAPL   APPLE INC          69        6815
##  5  2004 AAPL   APPLE INC         276        8050
##  6  2000 WMT    WALMART INC      5377       70349
##  7  2001 WMT    WALMART INC      6295       78130
##  8  2002 WMT    WALMART INC      6671       83451
##  9  2003 WMT    WALMART INC      8039       94685
## 10  2004 WMT    WALMART INC      9054      104912
## # ... with 13 more rows
…
