Chapter 5 Exploratory Data Analysis (EDA) | Data Analytics in Accounting An R Programming Approach
…
## # A tibble: 3 x 2
##   origin      n
##   <chr>   <int>
## 1 EWR    120835
## 2 JFK    111279
## 3 LGA    104662

Simialrly, we can see where these flights go by the following code -

flights %>% 
  count(dest)

## # A tibble: 105 x 2
##    dest      n
##    <chr> <int>
##  1 ABQ     254
##  2 ACK     265
##  3 ALB     439
##  4 ANC       8
##  5 ATL   17215
##  6 AUS    2439
##  7 AVL     275
##  8 BDL     443
##  9 BGR     375
## 10 BHM     297
## # ... with 95 more rows

If we want to order the rows when we use count() function, then we have to use additional argument such as sort = TRUE in the function

flights %>% 
  count(dest, sort = TRUE)

## # A tibble: 105 x 2
##    dest      n
##    <chr> <int>
##  1 ORD   17283
##  2 ATL   17215
##  3 LAX   16174
##  4 BOS   15508
##  5 MCO   14082
##  6 CLT   14064
##  7 SFO   13331
##  8 FLL   12055
##  9 MIA   11728
## 10 DCA    9705
## # ... with 95 more rows
…
Like the select_*, the verb filter has scoped versions such as filter_if, filter_at, and filter_all. If we want to learn more about these functions, we can use help functions such as ?filter_if or help(filter_if) to know more about these functions.

5.10 3rd (Third) verb - arrange ()

The arrange ()function allows you to reorder your data set by one or more variables.
For example, if you want to reorder the flights dataset by distance, you need to execute the following code -

flights %>% 
  arrange(distance)

## # A tibble: 336,776 x 19
##    carrier flight  year month   day dep_time
##    <chr>   <chr>  <int> <int> <int>    <int>
##  1 US      1632    2013     7    27       NA
##  2 EV      3833    2013     1     3     2127
##  3 EV      4193    2013     1     4     1240
##  4 EV      4502    2013     1     4     1829
##  5 EV      4645    2013     1     4     2128
##  6 EV      4193    2013     1     5     1155
##  7 EV      4619    2013     1     6     2125
##  8 EV      4619    2013     1     7     2124
##  9 EV      4619    2013     1     8     2127
## 10 EV      4619    2013     1     9     2126
## # ... with 336,766 more rows, and 13 more variables:
## #   sched_dep_time <int>, dep_delay <dbl>,
## #   arr_time <int>, sched_arr_time <int>,
## #   arr_delay <dbl>, tailnum <chr>, origin <chr>,
## #   dest <chr>, air_time <dbl>, distance <dbl>,
## #   hour <dbl>, minute <dbl>, time_hour <dttm>

From the results, we can see the lowest distance was 17-mile flight between EWR and LGA. The next lowest distance was 80-mile flight between EWR and PHL. However, if you want to see the longest distance, then you have to use desc () function becasue arrange () function reorders the rows in ascending order (from lowest to highest).

flights %>% 
  arrange(desc(distance))

## # A tibble: 336,776 x 19
##    carrier flight  year month   day dep_time
##    <chr>   <chr>  <int> <int> <int>    <int>
##  1 HA      51      2013     1     1      857
##  2 HA      51      2013     1     2      909
##  3 HA      51      2013     1     3      914
##  4 HA      51      2013     1     4      900
##  5 HA      51      2013     1     5      858
##  6 HA      51      2013     1     6     1019
##  7 HA      51      2013     1     7     1042
##  8 HA      51      2013     1     8      901
##  9 HA      51      2013     1     9      641
## 10 HA      51      2013     1    10      859
## # ... with 336,766 more rows, and 13 more variables:
## #   sched_dep_time <int>, dep_delay <dbl>,
## #   arr_time <int>, sched_arr_time <int>,
## #   arr_delay <dbl>, tailnum <chr>, origin <chr>,
## #   dest <chr>, air_time <dbl>, distance <dbl>,
## #   hour <dbl>, minute <dbl>, time_hour <dttm>
…
