4.3 Tidying Messy Data | Data Analytics in Accounting An R Programming Approach
…
4.3.2 Multiple Variables are Stored in One Column

The netincome_asset dataset is a good example of this kind of dataset. For example, the variable VALUES includes net income and total assets separated by /. This variable is very hard to manipulate. For example, if we want to calculate Return on Assets (ROA), which equals to net income divided by total assets, then it is not possible to use VALUES column to calculate ROA.

netincome_asset

## # A tibble: 23 x 4
##     year TICKER COMPANYNAME VALUES     
##    <dbl> <chr>  <chr>       <chr>      
##  1  2000 AAPL   APPLE INC   786/6803   
##  2  2001 AAPL   APPLE INC   -25/6021   
##  3  2002 AAPL   APPLE INC   65/6298    
##  4  2003 AAPL   APPLE INC   69/6815    
##  5  2004 AAPL   APPLE INC   276/8050   
##  6  2000 WMT    WALMART INC 5377/70349 
##  7  2001 WMT    WALMART INC 6295/78130 
##  8  2002 WMT    WALMART INC 6671/83451 
##  9  2003 WMT    WALMART INC 8039/94685 
## 10  2004 WMT    WALMART INC 9054/104912
## # ... with 13 more rows
…
